%YAML 1.1
%TAG !u! tag:unity3d.com,2011:
--- !u!114 &11400000
MonoBehaviour:
  m_ObjectHideFlags: 0
  m_PrefabParentObject: {fileID: 0}
  m_PrefabInternal: {fileID: 0}
  m_GameObject: {fileID: 0}
  m_Enabled: 1
  m_EditorHideFlags: 0
  m_Script: {fileID: 11500000, guid: 04e0fe94884149e48946d9140d8b5b21, type: 3}
  m_Name: meat
  m_EditorClassIdentifier: 
  Id: 2
  Image: {fileID: 21300000, guid: 8b802e5c00a4fc94f991152aac6c9cd0, type: 3}
  Name: Meat
  Description: This is meat.
  IsStackable: 1
  Type: 2
  LifeValue: 2
  Baked: 0
