%YAML 1.1
%TAG !u! tag:unity3d.com,2011:
--- !u!114 &11400000
MonoBehaviour:
  m_ObjectHideFlags: 0
  m_PrefabParentObject: {fileID: 0}
  m_PrefabInternal: {fileID: 0}
  m_GameObject: {fileID: 0}
  m_Enabled: 1
  m_EditorHideFlags: 0
  m_Script: {fileID: 11500000, guid: 74d8984ec0deaab4a98fea78b5ad4372, type: 3}
  m_Name: First-Aid Kit
  m_EditorClassIdentifier: 
  Id: 3
  Image: {fileID: 21300000, guid: 01a9aff01d682054b93fc5487d0f1ccf, type: 3}
  Name: First-Aid Kit
  Description: This is a First-Aid Kit. (Health:+5)
  IsStackable: 0
  Type: 3
  LifeValue: 5
