%YAML 1.1
%TAG !u! tag:unity3d.com,2011:
--- !u!221 &22100000
AnimatorOverrideController:
  m_ObjectHideFlags: 0
  m_PrefabParentObject: {fileID: 0}
  m_PrefabInternal: {fileID: 0}
  m_Name: Bob
  m_Controller: {fileID: 9100000, guid: cf8bf008cf2e03d48bd0e78038c3fc07, type: 2}
  m_Clips:
  - m_OriginalClip: {fileID: 7400000, guid: fd99b6b43703f1f47926ad5f72759788, type: 2}
    m_OverrideClip: {fileID: 7400000, guid: 6cfccf6845d58934f9e4e1542642ffc7, type: 2}
  - m_OriginalClip: {fileID: 7400000, guid: 05add75d2148f154db0d1130bebf4992, type: 2}
    m_OverrideClip: {fileID: 7400000, guid: 6618318250b1776479eb208c09d1fc89, type: 2}
  - m_OriginalClip: {fileID: 7400000, guid: 0c9c8c4fd8cd08e409568c74f3c68500, type: 2}
    m_OverrideClip: {fileID: 7400000, guid: 7e29860279ae15346914ff91e1e5e96b, type: 2}
  - m_OriginalClip: {fileID: 7400000, guid: 1bbed759d1d9b514d8833aef58e6ed86, type: 2}
    m_OverrideClip: {fileID: 7400000, guid: 6fd4822a1881bcb419d305ce024ef1df, type: 2}
  - m_OriginalClip: {fileID: 7400000, guid: 5cafa9a9947309741b00ab47abef18d8, type: 2}
    m_OverrideClip: {fileID: 7400000, guid: 3ba1d39c00900d248b80b3a16cd79cd0, type: 2}
  - m_OriginalClip: {fileID: 7400000, guid: d5b3523daea7ff54f9cee298ecd3f267, type: 2}
    m_OverrideClip: {fileID: 7400000, guid: 46936f0147598d34fad0340cb0fce968, type: 2}
  - m_OriginalClip: {fileID: 7400000, guid: 3b9e803a1e78e2a4c9f556ac5e1da119, type: 2}
    m_OverrideClip: {fileID: 7400000, guid: 2713839d2442f8b48930e8de20707bfe, type: 2}
  - m_OriginalClip: {fileID: 7400000, guid: e62172369c6efa44fb6707ef568984cb, type: 2}
    m_OverrideClip: {fileID: 7400000, guid: 9ef7588eaab6eda47b98015a2dceca32, type: 2}
  - m_OriginalClip: {fileID: 7400000, guid: f46e7b8dfd5e9984d82851a8ebf43860, type: 2}
    m_OverrideClip: {fileID: 7400000, guid: e5fd70cc0e03ac64880fb09f55401c26, type: 2}
