%YAML 1.1
%TAG !u! tag:unity3d.com,2011:
--- !u!114 &11400000
MonoBehaviour:
  m_ObjectHideFlags: 0
  m_PrefabParentObject: {fileID: 0}
  m_PrefabInternal: {fileID: 0}
  m_GameObject: {fileID: 0}
  m_Enabled: 1
  m_EditorHideFlags: 0
  m_Script: {fileID: 11500000, guid: e72ad2c1dd4870544af650c179a5a65c, type: 3}
  m_Name: Combat Boots
  m_EditorClassIdentifier: 
  Id: 6
  Image: {fileID: 21300012, guid: 01a9aff01d682054b93fc5487d0f1ccf, type: 3}
  Name: Combat Boots
  Description: 'There are Combat Boots. (Fighting:+3 Exploration: +2)'
  IsStackable: 0
  Type: 6
  HealthToAdd: 0
  FightingToAdd: 3
  ExplorationToAdd: 2
  MoraleToAdd: 0
  ActionPointsToAdd: 0
